,Кружки,Молодежный творческий клуб Святогор,"Москва, Новоостаповская, 4 к1",,"http://москва-южнопортовый.рф/content/GBU-MTK-svyatogor/, http://info-uvao.ru/author/mtk-svyatogor/","настольный теннис; мини-футбол; бадминтон; хоккей; шахматы; дартс; изобразительное творчество (рисунок, живопись, композиция); квиллинг (квиллинг с мамой, поделки из  гофрокартона); лепка из соленого теста; батик (роспись по ткани); художественная обработка дерева; выжигание; роспись по гипсу.",,http://vk.com/club31144629
,Кружки,Центр детского творчества «Южнопортовый»,"Москва, ул. Трофимова 15 а",Бельянинова Вера Никитична (http://cdtyuport.ucoz.ru/administraciya/Belyaninova_1.jpg) http://мо-южнопортовый.рф/sobranie/sostav/belyaninova-vera-nikitichna/,"http://u-port.dop.mskobr.ru/, http://cdtyuport.ucoz.ru/",,,
,Спорт,"Спортивная школа олимпийского резерва № 61 ""Фортуна""","Москва,
1-я ул. Машиностроения, 16",,http://sdusshor61.ucoz.ru/,,,
,Спорт,Физкультурно-оздоровительный комплекс «Южнопортовый»,"Москва, ул. Трофимова, д. 30, кор. 3",,,,,
,Музыка,Детская музыкальная школа  №35, Москва ул.Трофимова 15а,,,,,
