Тип,Название,Адрес,Директор,Сайт,Описание,Телефон
Роддом,Родильный дом № 15 филиал ГКБ № 13,"Москва, ул. Шарикоподшипниковская, д. 15",Пастарнак Андрей Юрьевич () http://мо-южнопортовый.рф/sobranie/sostav/pastarnak-andrey-yurevich/,"http://www.mosgorzdrav.ru/rd15, http://roddom15.ru",Родильный дом № 15 старейшее родовспомогательное учреждение столицы. В 2012 роддому исполнилось 75 лет.,(495) 674-42-87
Больница,Больница №53,"Москва, ул. Трофимова, д. 26","Аракелов Сергей Эрнестович () Поликлиническое отделение — Азевич Светлана Альбертовна (), жена депутата http://мо-южнопортовый.рф/sobranie/sostav/azevich-aleksandr-aleksandrovich/",http://www.mosgorzdrav.ru/gkb53,"Поликлиническое отделение больницы обслуживает следующие адреса: • Ул. Лобанова, 2/21, 7 (корп. 1, 2), 9, 6, 4, 5
• 2-й Кожуховский пр., д.: 9, 15 (корп. 1, 2, 3)
• Ул. Трофимова, д.: 9, 9, корп. 2, 8, 8а, 7, 6а, 6б, 6, 
5, 5, корп. 2, 4, 4а, 4б, 4в, 3, 2/1, 1/17, 10, д. 11, д. 13, д. 15, д. 
16, д. 16а, д. 18, д. 18а, д. 19 (корп. 1, 2), д. 20, д. 21 (корп. 1, 
2), д. 22 (корп. 1, 2), д. 23 (корп. 1, 2, 3), д. 24 (корп. 1, 2), д. 25
 (корп. 1, 2), д. 28 (корп. 1, 2, 3), д. 29, д. 31, д. 32 (корп. 1, 2), 
д. 33, д. 34, д. 35/20, д. 36, корп. 1
• 5-я Кожуховская ул., д.: 3, 4, 6, 8, 10, д. 9, д. 11, 
д. 12, д. 13, д. 14, д. 14, корп. 1, д. 16, д. 17, корп. 1, д. 18 (корп.
 1, 2), д. 19 (корп. 1, 2), д. 20, д. 21, д. 22 (корп. 1, 2), д. 24, 
корп. 1, д. 30, корп. 1, д. 32, корп. 1, д. 33, д. 34, корп. 1, д. 35
• 6-я Кожуховская ул., д.: 3 (корп. 1, 2), д. 4, д. 5, д.
 6, д. 10, д. 11, д. 11, корп. 2, д. 13, д. 15, д. 15, корп. 2, д. 16, 
д. 17, д. 18 (корп. 1, 2), д. 19, д. 21, д. 23, д. 24, д. 25, корп. 2, 
д. 27, д. 27, корп. 2, д. 28, д. 29б, д. 31б
• 7-я Кожуховская ул., д.: 4 (корп. 1, 2), д. 8 (корп. 1, 2), д. 10 (корп. 1, 2), д. 14/1, д. 16, д. 20а
• Ул. Петра Романова, д.: 2, д. 2, корп. 2, д. 3, д. 4, 
д. 4 (корп. 2, 3), д. 5, д. 6, д. 6, корп. 2, д. 7, д. 8, д. 9, д. 10, 
д. 11, д. 12, д. 13, д. 14, д. 15, д. 17, д. 18, корп. 1, д. 19
• Ул. Сайкина, д. 1, корп. 1, д. 1/2, д. 7, д. 9/1, д. 11/2, д. 13, д. 15/7, д. 17, д. 19, д. 21,6/5, 4, 2
• Шарикоподшипниковская ул., д.: 36/18, д. 40
• Южнопортовая ул., д.: 8, д. 10, д. 12, д. 14/32, д. 16, д. 18
• 2-й Южнопортовый пр., д.: 5 (корп. 1, 2), д. 7, д. 9, д. 13, д. 15, д. 17, корп. 2, д. 23, корп. 2, д. 27","(495) 958-95-50, (495) 958-95-85"
Стоматологическая поликлиника,Стоматологическая поликлиника №27,"г. Москва, 6-ая Кожуховская ул., д. 21",Коваленко Алексей Николаевич (http://27sp.ru/wpimages/wpc1d57c2f_05_06.jpg),"www.mosgorzdrav.ru/sp27, http://27sp.ru/","Поликлиника обслуживает население районов «Южнопортовый» и «Печатники» ЮВАО города Москвы.
Учитывая работу в системе ОМС, поликлиника ведет прием всех обращающихся
 застрахованных на территории РФ граждан, независимо от места их 
жительства, при предъявлении полиса ОМС и паспорта.",(495) 679-68-74
Больница,Больница №13,"Москва, ул. Велозаводская, д. 1/1",Аронов Леонид Семенович (http://www.gkb13.ru/images/upload/ru/1229/als.jpg),"http://www.mosgorzdrav.ru/gkb13, http://www.gkb13.ru/","Поликлиническое отделение больницы обслуживает следующие адреса в Южнопортовом районе (также обслуживает адреса в соседних районах):
1-я Дубровская 12, 14 
1-я Машиностроения  д.6А, вл. 6-11, 4 (корп. 1, 2, 3, 4), 2/7 (корп. 1, 2)
2-я Машиностроения 9, 9Б, 11 
2-я Машиностроения д.9А,  д.7 к.3, д.7 к.2
Новоостаповская 4 (корп. 1, 2), 6, 8, 10А, 12А 
Симоновский вал , д.13 к.1, 2, д.15, д.17 к.1, 2, д.19
Шарикоподшипниковская 2, 2А, 7 (корп. 1, 2), 9, 6/14, 12, 16, 18, 24, 26, 28, 20, 32 
Шарикоподшипниковская ул., д.22, д.22а",(495) 674-51-00
ПНД,Психоневрологический диспансер № 10 филиал № 1 ПБ № 14,"Москва, ул. Петра Романова, д. 2, корпус 1",Аношенко Марина Ивановна,http://www.mosgorzdrav.ru/pnd10,"Обслуживаются жители следующих районов г.Москвы : Даниловский , Донской , Нагатино-Садовники, Нагатинский Затон, Южнопортовый.",(495) 679-44-85
Поликлиника,Детская поликлиника №61,"Москва, 2-ой Южнопортовый проезд, д. 25, корп. 1",Кирюхина Наталья Анатольевна,http://www.mosgorzdrav.ru/dgp61,"Перечень адресов в Южнопортовом районе обслуживаемых ДГП № 61 (также обслуживает адреса в соседних районах): 
·        Улица Сайкина 1/1, 1/2, 7, 9/1, 11/2, 13, 15/7, 19, 21, 2, 4, 6/5 
·        Улица Южнопортовая, 8, 10, 12, 14/32, 16, 18 
·        2-ой Южнопортовый проезд, 5, 7, 9, 13, 15, 17 (2), 27, 23 (2) 
·        2-ой Кожуховский проезд, 9, 15 (1-3) 
·        Улица Шарикоподшипниковая, 18, 20, 22, 24, 26, 28, 30, 32, 36/18, 40 
·        1-ая улица Машиностроения, 6, 6а 
·        2-ая улица Машиностроения, 9, 9 (а, б), 11, 21 
·        5-ая Кожуховская, улица, 24 (1), 
22 (1, 2), 9, 11, 13, 14, 16, 18 (1, 2), 19, 21, 20, 17, 12, 3, 4, 6, 8,
 10, 30, 32, 33, 34, 35 
·        6-ая Кожуховская улица, 27 (1, 2), 29б, 3(1,2), 4, 5, 6, 11/2, 13, 15 (1, 2), 17, 19, 10, 16, 18, 21, 23, 25, 24, 28, 31б 
·        7-ая Кожуховская улица, 4(1,2), 8 (1, 2), 10 (1, 2), 14, 16, 20а 
·        Улица Петра Романова, 2, 3, 4, 5, 6, 6 (2), 7, 9, 11, 13, 15, 17, 18(1,2), 19, 6, 8, 10, 12, 14, 18 (1, 2) 
·        Улица Трофимова, 10, 11, 13, 15, 
16а, 18а, 19 (1, 2), 21 (1, 2), 23 (1-3), 25 (1, 2), 16, 18, 20, 22 (1, 
2), 24 (1, 2), 28 (1-3), 29, 31, 33, 3, 5, 7, 5 (2), 9, 9 (2), 1/17, 
2/1, 4, 4а, 4б, 4в, 6, 6а, 6б, 8, 8а, 32(1,2), 34, 35/20, 36 
Детские образовательные учреждения обслуживаемые ДГП №61:
Школы №№ 490, 485, 506, 500, 462, 1804, 509, 530
ДДУ №№ 1672, 2583, 1876 (ортопедический), 476, 1804, 1264, 1743 (логопедический), 1875, 1881, 2449.",(495) 679-44-85
КВД,"Филиал ""Пролетарский"" (МНПЦДиК)","Москва, ул. Мельникова, д. 22",Титов Сергей Иванович,http://www.mosgorzdrav.ru/mgz/KOMZDRAVinstitutions.nsf/va_WebPages/lpu_a240?OpenDocument,Филиал «Пролетарский» оказывает специализированную дерматовенерологическую  помощь прикрепленному населению.,(495) 674-36-24
Поликлиника,Детская городская поликлиника № 101 филиал № 2 ДГП № 61,"Москва, Крутицкий вал, д. 3",Золотавин Сергей Валентинович,http://www.mosgorzdrav.ru/dgp101,"Обслуживаемые адреса в Южнопортовом районе (также обслуживает адреса в соседних районах): ·        ул. 1-ая Машиностроения д.2/7 к.1, 2, д.4 к.1, 2, 3, 4, 
·        ул. 2-ая Машиностроения д.7 к.2, 3, 
·        ул. 1-ая Кожуховская д.19 к.1, 2, 3. 
·        ул. Симоновский вал д.7 к.1, 2, д. 8, 9, 10, 12, 14, 11/31 к. 1, 2, д.13 к.1, 2, д.15, 17 к.1, 2, д.19, 
·        ул. Шарикоподшипниковская д.2, 2а, 7 к.1, 2, д.9, 6/14, 16, 
·        ул. Новоостаповская д. 4к.1, 2, д. 6, 8, 10а, 12а, 
·        ул.1-ая Дубровская д.2, 2а, 4, 4а, 4б, 6, 6а, 6б, 8а, 12, 14, 16а, 18, 8/12, 2б к.1, 2, 
·        ул. Мельникова д.14, 15/10, 16, 17, 18а, 21, 23, 24, 25, 27, 
·        3 Крутицкий пер. д.13,15, 
·        ул. Крутицкий вал д.3 к.1, 2",(495) 676-06-19
Роддом,Родильный дом № 14 филиал ГКБ № 13,"Москва, 3-ий Крутицкий пер., д.16",Ярема Владимир Владимирович,http://www.mosgorzdrav.ru/rd14,"Родильный дом находится на территории соседнего района, однако включён в структуру ГКБ №13",(495) 676-77-09